Dyadic Structural Equation Modeling • dySEM
…
Script your preferred model

Fit and Inspect your model via lavaan

Output statistical visualizations and/or tables

There are additional optional functions, as well, that help users to calculate certain additional quantitative values (e.g., reliability, corrected model fit indexes in models with indistinguishable dyad members).

1. Import and wrangle data

Structural equation modeling (SEM) programs like lavaan require dyadic data to be in dyad structure data set, whereby each row contains the data for one dyad, with separate columns for each observation made for each member of the dyad. For example:

DRES
#> # A tibble: 121 × 18
#>    PRQC_1.1 PRQC_2.1 PRQC_3.1 PRQC_4.1 PRQC_5.1 PRQC_6.1 PRQC_7.1 PRQC_8.1
#>       <int>    <int>    <int>    <int>    <int>    <int>    <int>    <int>
#>  1        7        7        7        7        7        7        7        5
#>  2        6        6        6        7        7        6        5        5
#>  3        7        7        7        7        7        7        7        6
#>  4        6        6        6        7        7        6        5        6
#>  5        7        7        7        7        7        6        7        6
#>  6        6        6        6        6        6        3        6        5
#>  7        7        6        7        6        6        6        5        6
#>  8        6        7        7        7        7        6        5        6
#>  9        7        7        7        7        7        6        6        6
#> 10        6        6        6        7        7        7        4        4
#> # ℹ 111 more rows
#> # ℹ 10 more variables: PRQC_9.1 <int>, PRQC_1.2 <int>, PRQC_2.2 <int>,
#> #   PRQC_3.2 <int>, PRQC_4.2 <int>, PRQC_5.2 <int>, PRQC_6.2 <int>,
#> #   PRQC_7.2 <int>, PRQC_8.2 <int>, PRQC_9.2 <int>
…
