dySEM: Dyadic Data Analysis of Latent Variables • dySEM
…
Scrape variables from your data frame

Script your preferred model

Fit and Inspect your model via lavaan

Output statistical visualizations and/or tables

1. Import and wrangle data

Structural equation modeling (SEM) programs like lavaan require dyadic data to be in dyad structure data set, whereby each row contains the data for one dyad, with separate columns for each observation made for each member of the dyad. For example:

DRES
#> # A tibble: 121 x 18
#>    PRQC_1.1 PRQC_2.1 PRQC_3.1 PRQC_4.1 PRQC_5.1 PRQC_6.1 PRQC_7.1 PRQC_8.1
#>       <dbl>    <dbl>    <dbl>    <dbl>    <dbl>    <dbl>    <dbl>    <dbl>
#>  1        7        7        7        7        7        7        7        5
#>  2        6        6        6        7        7        6        5        5
#>  3        7        7        7        7        7        7        7        6
#>  4        6        6        6        7        7        6        5        6
#>  5        7        7        7        7        7        6        7        6
#>  6        6        6        6        6        6        3        6        5
#>  7        7        6        7        6        6        6        5        6
#>  8        6        7        7        7        7        6        5        6
#>  9        7        7        7        7        7        6        6        6
#> 10        6        6        6        7        7        7        4        4
#> # … with 111 more rows, and 10 more variables: PRQC_9.1 <dbl>, PRQC_1.2 <dbl>,
#> #   PRQC_2.2 <dbl>, PRQC_3.2 <dbl>, PRQC_4.2 <dbl>, PRQC_5.2 <dbl>,
#> #   PRQC_6.2 <dbl>, PRQC_7.2 <dbl>, PRQC_8.2 <dbl>, PRQC_9.2 <dbl>
…
