dySEM overview • dySEM
…
These families of functions–Scrapers, Scripters, and Outputters, and Getters–are listed and described in the Reference

We now demonstrate a typical dySEM workflow, using the built-in DRES data (Raposso, Impett, & Muise, 2020), in order to perform dyadic confirmatory factor analysis (CFA). More elaborate and specific vignettes are forthcoming to provide didactic materials for conducting other sorts of dyadic data analyses via dySEM.

1. Import and Wrangle Data

We will use a subset of DRES, consisting of 121 dyadic couples’ ratings of relationship quality on 9 of the PRQC indicators (1 = not at all, 7 = extremely; all indicators positively keyed). Structural equation modeling (SEM) programs like lavaan require dyadic data to be in dyad structure dataset, whereby each row contains the data for one dyad, with separate columns for each observation (in this case, indicator variables of latent relationship quality) made for each member of the dyad. We may eventually build in data-transformation functions to go from various data structures to a dyad structure, but for now, we recommend tidyr::pivot_wider or the tools provided by Ledermann & Kenny (2014)

Like many real-world analytic contexts, DRES contains a number of other variables that we aren’t interested in modeling at this time (specifically, 5 indicators of sexual satisfaction from the GMSEX for each dyad member). This wil not be a problem for dySEM.

Our data set therefore results in a tibble that is 121 (# of couples) x 28 ((9 PRQC items + 5 GMSEX items) x 2 (# of dyad members)):

DRES
#> # A tibble: 121 x 28
#>    PRQC_1.1 PRQC_2.1 PRQC_3.1 PRQC_4.1 PRQC_5.1 PRQC_6.1 PRQC_7.1 PRQC_8.1
#>       <dbl>    <dbl>    <dbl>    <dbl>    <dbl>    <dbl>    <dbl>    <dbl>
#>  1        7        7        7        7        7        7        7        5
#>  2        6        6        6        7        7        6        5        5
#>  3        7        7        7        7        7        7        7        6
#>  4        6        6        6        7        7        6        5        6
#>  5        7        7        7        7        7        6        7        6
#>  6        6        6        6        6        6        3        6        5
#>  7        7        6        7        6        6        6        5        6
#>  8        6        7        7        7        7        6        5        6
#>  9        7        7        7        7        7        6        6        6
#> 10        6        6        6        7        7        7        4        4
#> # … with 111 more rows, and 20 more variables: PRQC_9.1 <dbl>, PRQC_1.2 <dbl>,
#> #   PRQC_2.2 <dbl>, PRQC_3.2 <dbl>, PRQC_4.2 <dbl>, PRQC_5.2 <dbl>,
#> #   PRQC_6.2 <dbl>, PRQC_7.2 <dbl>, PRQC_8.2 <dbl>, PRQC_9.2 <dbl>,
#> #   sexsat1.1 <dbl>, sexsat2.1 <dbl>, sexsat3.1 <dbl>, sexsat4.1 <dbl>,
#> #   sexsat5.1 <dbl>, sexsat1.2 <dbl>, sexsat2.2 <dbl>, sexsat3.2 <dbl>,
#> #   sexsat4.2 <dbl>, sexsat5.2 <dbl>
…
