Fitting and Interpretting the Correlated Dyadic Factors Model (CDFM) • dySEM
…
Likewise, the commitment items follow a similar “sip”
pattern, albeit with a different stem, “com”.

For this exemplar of dyadic invariance testing, we will focus on the
satisfaction items, and assign them into a stand-alone demonstration
data frame called my_dat:

my_dat <- commitmentM

#show satisfaction item previews
my_dat |> 
  select(starts_with("sat.g")) |> 
  as_tibble() 
#> # A tibble: 282 × 10
#>    sat.g1_f sat.g2_f sat.g3_f sat.g4_f sat.g5_f sat.g1_m sat.g2_m sat.g3_m
#>       <int>    <int>    <int>    <int>    <int>    <int>    <int>    <int>
#>  1        2        1        1        2        1        1        1        1
#>  2        9        9        9        9        9        9        9        9
#>  3        6        5        7        5        7        5        5        4
#>  4        9        5        9        9        9        2        5        4
#>  5        1        7        1        2        2        2        5        1
#>  6        8        8        8        8        8        9        9        9
#>  7        9        9        9        9        9        9        9        9
#>  8        1        1        1        1        1        1        1        1
#>  9        6        5        4        6        6        9        2        7
#> 10        9        9        9        9        9        9        9        9
#> # ℹ 272 more rows
#> # ℹ 2 more variables: sat.g4_m <int>, sat.g5_m <int>
…
