dySEM overview • dySEM
…
Like many real-world analytic contexts, DRES
contains a number of other variables that we aren’t interested in
modeling at this time (specifically, 5 indicators of sexual satisfaction
from the GMSEX
for each dyad member). This wil not be a problem for
dySEM.

Our data set therefore results in a tibble that is 121 (# of couples)
x 28 ((9 PRQC items + 5 GMSEX items) x 2 (# of dyad members)):

DRES
#> # A tibble: 121 × 28
#>    PRQC_1.1 PRQC_2.1 PRQC_3.1 PRQC_4.1 PRQC_5.1 PRQC_6.1 PRQC_…¹ PRQC_…² PRQC_…³
#>       <int>    <int>    <int>    <int>    <int>    <int>   <int>   <int>   <int>
#>  1        7        7        7        7        7        7       7       5       5
#>  2        6        6        6        7        7        6       5       5       5
#>  3        7        7        7        7        7        7       7       6       5
#>  4        6        6        6        7        7        6       5       6       6
#>  5        7        7        7        7        7        6       7       6       6
#>  6        6        6        6        6        6        3       6       5       5
#>  7        7        6        7        6        6        6       5       6       6
#>  8        6        7        7        7        7        6       5       6       6
#>  9        7        7        7        7        7        6       6       6       6
#> 10        6        6        6        7        7        7       4       4       4
#> # … with 111 more rows, 19 more variables: PRQC_1.2 <int>, PRQC_2.2 <int>,
#> #   PRQC_3.2 <int>, PRQC_4.2 <int>, PRQC_5.2 <int>, PRQC_6.2 <int>,
#> #   PRQC_7.2 <int>, PRQC_8.2 <int>, PRQC_9.2 <int>, sexsat1.1 <int>,
#> #   sexsat2.1 <int>, sexsat3.1 <int>, sexsat4.1 <int>, sexsat5.1 <int>,
#> #   sexsat1.2 <int>, sexsat2.2 <int>, sexsat3.2 <int>, sexsat4.2 <int>,
#> #   sexsat5.2 <int>, and abbreviated variable names ¹​PRQC_7.1, ²​PRQC_8.1,
#> #   ³​PRQC_9.1
…
