Fitting and Interpreting the Latent Actor-Partner Interdependence Model (L-APIM) • dySEM
…
com_dat <- commitmentQ

com_dat |> 
  as_tibble() 
#> # A tibble: 118 × 20
#>    sat.g.1_1 sat.g.1_2 sat.g.1_3 sat.g.1_4 sat.g.1_5 com.1_1 com.1_2 com.1_3
#>        <int>     <int>     <int>     <int>     <int>   <int>   <int>   <int>
#>  1         8         8         5         7         8       8       6       7
#>  2         8         8         8         1         8       9       9       1
#>  3         4         6         4         6         4       9       9       9
#>  4         4         4         5         4         5       7       5       7
#>  5         1         1         1         1         1       9       9       1
#>  6         6         8         7         9         5       9       9       1
#>  7         9         9         7         8         8       9       9       1
#>  8         9         9         9         9         9       9       9       9
#>  9         5         6         5         5         6       9       9       1
#> 10         9         9         9         9         9       9       9       1
#> # ℹ 108 more rows
#> # ℹ 12 more variables: com.1_4 <int>, com.1_5 <int>, sat.g.2_1 <int>,
#> #   sat.g.2_2 <int>, sat.g.2_3 <int>, sat.g.2_4 <int>, sat.g.2_5 <int>,
#> #   com.2_1 <int>, com.2_2 <int>, com.2_3 <int>, com.2_4 <int>, com.2_5 <int>
…
