Fitting and Interpreting the Multiple Correlated Dyadic Factors Model (M-CDFM) • dySEM
…
All variables in this data frame follow a “sip”
naming pattern, with a delimiting “_” between the item number and
distinguishing partner character:

pnrqM_dat <- pnrqM

pnrqM_dat |> 
  as_tibble()
#> # A tibble: 219 × 16
#>    sat.pnrq1_w sat.pnrq2_w sat.pnrq3_w sat.pnrq4_w dsat.pnrq1_w dsat.pnrq2_w
#>          <dbl>       <dbl>       <dbl>       <dbl>        <dbl>        <dbl>
#>  1           5           5           5           5            1            1
#>  2           6           6           6           6            1            1
#>  3           5           5           4           6            3            5
#>  4           5           5           6           5            1            2
#>  5           4           4           5           4            1            1
#>  6           4           4           4           3            1            1
#>  7           5           5           5           5            1            1
#>  8           5           5           5           5            1            1
#>  9           5           6           6           6            1            1
#> 10           3           3           4           4            1            1
#> # ℹ 209 more rows
#> # ℹ 10 more variables: dsat.pnrq3_w <dbl>, dsat.pnrq4_w <dbl>,
#> #   sat.pnrq1_m <dbl>, sat.pnrq2_m <dbl>, sat.pnrq3_m <dbl>, sat.pnrq4_m <dbl>,
#> #   dsat.pnrq1_m <dbl>, dsat.pnrq2_m <dbl>, dsat.pnrq3_m <dbl>,
#> #   dsat.pnrq4_m <dbl>
…
In contrast to pnrqM, variable names in the
prqcQ data frame follow the “spi”
naming pattern:

prqc_dat <- prqcQ

prqc_dat |> 
  as_tibble()
#> # A tibble: 118 × 36
#>    prqc.1_1 prqc.1_2 prqc.1_3 prqc.1_4 prqc.1_5 prqc.1_6 prqc.1_7 prqc.1_8
#>       <int>    <int>    <int>    <int>    <int>    <int>    <int>    <int>
#>  1        5        6        5        5        4        6        6        6
#>  2        7        7        7        7        7        7        7        7
#>  3        4        3        4        7        7        7        1        2
#>  4        5        5        7        6        5        7        5        7
#>  5        7        7        7        7        7        7        7        7
#>  6        5        5        5        6        7        7        6        6
#>  7        7        7        7        7        6        6        6        7
#>  8        7        7        7        7        7        7        7        7
#>  9        4        4        4        6        6        6        4        6
#> 10        7        7        7        7        7        7        7        7
#> # ℹ 108 more rows
#> # ℹ 28 more variables: prqc.1_9 <int>, prqc.1_10 <int>, prqc.1_11 <int>,
#> #   prqc.1_12 <int>, prqc.1_13 <int>, prqc.1_14 <int>, prqc.1_15 <int>,
#> #   prqc.1_16 <int>, prqc.1_17 <int>, prqc.1_18 <int>, prqc.2_1 <int>,
#> #   prqc.2_2 <int>, prqc.2_3 <int>, prqc.2_4 <int>, prqc.2_5 <int>,
#> #   prqc.2_6 <int>, prqc.2_7 <int>, prqc.2_8 <int>, prqc.2_9 <int>,
#> #   prqc.2_10 <int>, prqc.2_11 <int>, prqc.2_12 <int>, prqc.2_13 <int>, …
…
