…
All variables in this data frame follow a [“sip” naming pattern](NA):

``` r

imsM_dat <- imsM

imsM_dat |> 
  as_tibble()
#> # A tibble: 282 × 40
#>    sat.g1_f sat.g2_f sat.g3_f sat.g4_f sat.g5_f qalt.g1_f qalt.g2_f qalt.g3_f
#>       <int>    <int>    <int>    <int>    <int>     <int>     <int>     <int>
#>  1        2        1        1        2        1         3         1         5
#>  2        9        9        9        9        9         5         1         1
#>  3        6        5        7        5        7         5         3         5
#>  4        9        5        9        9        9         8         9         9
#>  5        1        7        1        2        2         9         7         8
#>  6        8        8        8        8        8         1         1         5
#>  7        9        9        9        9        9         1         1         1
#>  8        1        1        1        1        1         1         1         1
#>  9        6        5        4        6        6         7         5         7
#> 10        9        9        9        9        9         1         1         1
#> # ℹ 272 more rows
#> # ℹ 32 more variables: qalt.g4_f <int>, qalt.g5_f <int>, invest.g1_f <int>,
#> #   invest.g2_f <int>, invest.g3_f <int>, invest.g4_f <int>, invest.g5_f <int>,
#> #   com1_f <int>, com2_f <int>, com3_f <int>, com4_f <int>, com5_f <int>,
#> #   sat.g1_m <int>, sat.g2_m <int>, sat.g3_m <int>, sat.g4_m <int>,
#> #   sat.g5_m <int>, qalt.g1_m <int>, qalt.g2_m <int>, qalt.g3_m <int>,
#> #   qalt.g4_m <int>, qalt.g5_m <int>, invest.g1_m <int>, invest.g2_m <int>, …
```
…
In contrast to `imsM`, variable names in the `prqcQ` data frame follow
the [“spi” naming
pattern](https://jsakaluk.github.io/dySEM/articles/varnames.html):

``` r

prqc_dat <- prqcQ

prqc_dat |> 
  as_tibble()
#> # A tibble: 118 × 36
#>    prqc.1_1 prqc.1_2 prqc.1_3 prqc.1_4 prqc.1_5 prqc.1_6 prqc.1_7 prqc.1_8
#>       <int>    <int>    <int>    <int>    <int>    <int>    <int>    <int>
#>  1        5        6        5        5        4        6        6        6
#>  2        7        7        7        7        7        7        7        7
#>  3        4        3        4        7        7        7        1        2
#>  4        5        5        7        6        5        7        5        7
#>  5        7        7        7        7        7        7        7        7
#>  6        5        5        5        6        7        7        6        6
#>  7        7        7        7        7        6        6        6        7
#>  8        7        7        7        7        7        7        7        7
#>  9        4        4        4        6        6        6        4        6
#> 10        7        7        7        7        7        7        7        7
#> # ℹ 108 more rows
#> # ℹ 28 more variables: prqc.1_9 <int>, prqc.1_10 <int>, prqc.1_11 <int>,
#> #   prqc.1_12 <int>, prqc.1_13 <int>, prqc.1_14 <int>, prqc.1_15 <int>,
#> #   prqc.1_16 <int>, prqc.1_17 <int>, prqc.1_18 <int>, prqc.2_1 <int>,
#> #   prqc.2_2 <int>, prqc.2_3 <int>, prqc.2_4 <int>, prqc.2_5 <int>,
#> #   prqc.2_6 <int>, prqc.2_7 <int>, prqc.2_8 <int>, prqc.2_9 <int>,
#> #   prqc.2_10 <int>, prqc.2_11 <int>, prqc.2_12 <int>, prqc.2_13 <int>, …
```
…
